                Core name: Xilinx LogiCORE RAM-based Shift Register
                Version: 11.0
                Release Date: January 11 2012


================================================================================

This document contains the following sections:

1. Introduction
2. New Features
3. Supported Devices
4. Resolved Issues
5. Known Issues
6. Technical Support
7. Other Information
8. Core Release History
9. Legal Disclaimer

================================================================================


1. INTRODUCTION

For installation instructions for this release, please go to:

   http://www.xilinx.com/ipcenter/coregen/ip_update_install_instructions.htm

For system requirements:

   http://www.xilinx.com/ipcenter/coregen/ip_update_system_requirements.htm

This file contains release notes for the Xilinx LogiCORE IP RAM-based Shift Register v11.0
solution. For the latest core updates, see the product page at:

   http://www.xilinx.com/products/ipcenter/RAM-based_Shift_Register.htm


2. NEW FEATURES

- ISE 13.4 software support
- ISE 13.3 software support
- ISE 13.2 software support
- Support for Artix-7 with ISE 13.2
- ISE 13.1 software support
- Support for Virtex-7 and Kintex-7 with ISE 13.1
- Support for Virtex-6Q and Spartan-6Q with ISE 12.1
- ISE 11.4 software support
- Support for Automotive Spartan-6 with ISE 11.4
- Support for Spartan-6 Low Power with ISE 11.4
- Support for Virtex-6 Low Power and Virtex-5Q with ISE 11.3
- Support for Virtex-6, Spartan-6, with ISE 11.1


3. SUPPORTED DEVICES
 
The following device families are supported by the core for this release.

Zynq-7000*

Virtex-7 XC XT/HT/T
Virtex-7 -2L XC XT/T

Virtex-6 XC CXT/LXT/SXT/HXT
Virtex-6 XQ LXT/SXT                                                       
Virtex-6 -1L XQ LXT/SXT
Virtex-6 -1L XC LXT/SXT 

Kintex-7 XC
Kintex-7 -2L XC

Artix-7 XC

Spartan-6 XC LX/LXT 
Spartan-6 XA 
Spartan-6 XQ LX/LXT       
Spartan-6 -1L XQ LX
Spartan-6 -1L XC LX

Virtex-5 XC LX/LXT/SXT/TXT/FXT
Virtex-5 XQ LX/ LXT/SXT/FXT                                                

Virtex-4 XC LX/SX/FX
Virtex-4 XQ LX/SX/FX
Virtex-4 XQR LX/SX/FX                                                  

Spartan-3 XC
Spartan-3 XA                                                                      
Spartan-3A XC 3A / 3A DSP / 3AN                                       
Spartan-3A XA 3A / 3A DSP                                                    
Spartan-3E XC                                        
Spartan-3E XA 

*To access these devices in the ISE Design Suite, contact your Xilinx FAE.


4. RESOLVED ISSUES

  - N/A


5. KNOWN ISSUES

The following are known issues for v11.0 of this core at time of release:

  - None

The most recent information, including known issues, workarounds, and
resolutions for this version is provided in the IP Release Notes Guide
located at

   www.xilinx.com/support/documentation/user_guides/xtp025.pdf


6. TECHNICAL SUPPORT

To obtain technical support, create a WebCase at www.xilinx.com/support.
Questions are routed to a team with expertise using this product.

Xilinx provides technical support for use of this product when used
according to the guidelines described in the core documentation, and
cannot guarantee timing, functionality, or support of this product for
designs that do not follow specified guidelines.


7. OTHER INFORMATION

- None


8. CORE RELEASE HISTORY

Date        By            Version      Description
================================================================================
01/11/2012  Xilinx, Inc.  11.0          ISE 13.4 support
10/19/2011  Xilinx, Inc.  11.0         ISE 13.3 support
06/22/2011  Xilinx, Inc.  11.0         ISE 13.2 support, Artix-7 support
03/01/2011  Xilinx, Inc   11.0         ISE 13.1 support
07/30/2010  Xilinx, Inc.  11.0         ISE 13.0.1, Virtex-7 and Kintex-7 support
04/19/2010  Xilinx, Inc.  11.0         ISE 12.1, Virtex-6Q and Spartan-6Q support
12/02/2009  Xilinx, Inc.  11.0         ISE 11.4 support, Spartan-6L and Automotive Spartan6 support
09/16/2009  Xilinx, Inc.  11.0         ISE 11.3 support, Virtex-6L support
04/24/2009  Xilinx, Inc.  11.0         ISE 11.1 support
================================================================================


9. LEGAL DISCLAIMER

(c) Copyright 2002 - 2011 Xilinx, Inc. All rights reserved.

This file contains confidential and proprietary information
of Xilinx, Inc. and is protected under U.S. and
international copyright and other intellectual property
laws.

DISCLAIMER

This disclaimer is not a license and does not grant any
rights to the materials distributed herewith. Except as
otherwise provided in a valid license issued to you by
Xilinx, and to the maximum extent permitted by applicable
law: (1) THESE MATERIALS ARE MADE AVAILABLE "AS IS" AND
WITH ALL FAULTS, AND XILINX HEREBY DISCLAIMS ALL WARRANTIES
AND CONDITIONS, EXPRESS, IMPLIED, OR STATUTORY, INCLUDING
BUT NOT LIMITED TO WARRANTIES OF MERCHANTABILITY, NON-
INFRINGEMENT, OR FITNESS FOR ANY PARTICULAR PURPOSE; and
(2) Xilinx shall not be liable (whether in contract or tort,
including negligence, or under any other theory of
liability) for any loss or damage of any kind or nature
related to, arising under or in connection with these
materials, including for any direct, or any indirect,
special, incidental, or consequential loss or damage
(including loss of data, profits, goodwill, or any type of
loss or damage suffered as a result of any action brought
by a third party) even if such damage or loss was
reasonably foreseeable or Xilinx had been advised of the
possibility of the same.

CRITICAL APPLICATIONS

Xilinx products are not designed or intended to be fail-
safe, or for use in any application requiring fail-safe
performance, such as life-support or safety devices or
systems, Class III medical devices, nuclear facilities,
applications related to the deployment of airbags, or any
other applications that could lead to death, personal
injury, or severe property or environmental damage
(individually and collectively, "Critical
Applications"). Customer assumes the sole risk and
liability of any use of Xilinx products in Critical
Applications, subject only to applicable laws and
regulations governing limitations on product liability.

THIS COPYRIGHT NOTICE AND DISCLAIMER MUST BE RETAINED AS
PART OF THIS FILE AT ALL TIMES.

