<?xml version="1.0" encoding="UTF-8"?>
<symbol version="7" name="Sync_Latency">
    <symboltype>BLOCK</symboltype>
    <timestamp>2012-8-8T19:15:32</timestamp>
    <pin polarity="Input" x="0" y="80" name="d[2:0]" />
    <pin polarity="Input" x="0" y="144" name="a[5:0]" />
    <pin polarity="Input" x="0" y="208" name="clk" />
    <pin polarity="Output" x="288" y="80" name="q[2:0]" />
    <graph>
        <text style="fontsize:40;fontname:Arial" x="32" y="32">Sync_Latency</text>
        <rect width="224" x="32" y="32" height="384" />
        <line x2="32" y1="80" y2="80" style="linewidth:W" x1="0" />
        <attrtext style="fontsize:24;fontname:Arial" attrname="PinName" x="36" y="80" type="pin d[2:0]" />
        <line x2="32" y1="144" y2="144" style="linewidth:W" x1="0" />
        <attrtext style="fontsize:24;fontname:Arial" attrname="PinName" x="36" y="144" type="pin a[5:0]" />
        <line x2="32" y1="208" y2="208" x1="0" />
        <attrtext style="fontsize:24;fontname:Arial" attrname="PinName" x="36" y="208" type="pin clk" />
        <line x2="256" y1="80" y2="80" style="linewidth:W" x1="288" />
        <attrtext style="alignment:RIGHT;fontsize:24;fontname:Arial" attrname="PinName" x="252" y="80" type="pin q[2:0]" />
    </graph>
</symbol>
